{
    "/api/*": {
        "target": "https://127.0.0.1:443",
        "secure": false,
        "changeOrigin": true,
        "pathRewrite": {
            "^/api": "https://127.0.0.1"
          }
    }
}